Mitchell O’Hara-Wild - Introducing feasts
…
With the package now available on CRAN, it is now easier than ever to install:

install.packages("feasts")

To see what is on feasts’ menu, we’ll start by loading a few packages:

library(tidyverse)
library(tsibble)
library(feasts)

In particular, we’ll be exploring the total quarterly Australian domestic overnight trips for a variety of locations and purposes around Australia.

tourism

# A tsibble: 24,320 x 5 [1Q]
# Key:       Region, State, Purpose [304]
   Quarter Region   State           Purpose  Trips
     <qtr> <chr>    <chr>           <chr>    <dbl>
 1 1998 Q1 Adelaide South Australia Business  135.
 2 1998 Q2 Adelaide South Australia Business  110.
 3 1998 Q3 Adelaide South Australia Business  166.
 4 1998 Q4 Adelaide South Australia Business  127.
 5 1999 Q1 Adelaide South Australia Business  137.
 6 1999 Q2 Adelaide South Australia Business  200.
 7 1999 Q3 Adelaide South Australia Business  169.
 8 1999 Q4 Adelaide South Australia Business  134.
 9 2000 Q1 Adelaide South Australia Business  154.
10 2000 Q2 Adelaide South Australia Business  169.
# i 24,310 more rows
…
Loess seasonal decomposition
stl()
STL()

Time series decompositions allow you to isolate structural components such as trend and seasonality from the data. The decomposition functions in feasts use a model-like formula interface, allowing you to control many aspects of the decomposition (using season(window = 5) allows the seasonality to change fairy quickly for quarterly data).

tourism %>% 
  group_by(Purpose) %>% 
  summarise(Trips = sum(Trips)) %>% 
  model(STL(Trips ~ season(window = 5))) %>% 
  components()

# A dable: 320 x 8 [1Q]
# Key:     Purpose, .model [4]
# :        Trips = trend + season_year + remainder
   Purpose  .model       Quarter Trips trend season_year remainder season_adjust
   <chr>    <chr>          <qtr> <dbl> <dbl>       <dbl>     <dbl>         <dbl>
 1 Business STL(Trips ~~ 1998 Q1 3599. 3814.     -425.       210.          4024.
 2 Business STL(Trips ~~ 1998 Q2 3724. 3854.      185.      -315.          3539.
 3 Business STL(Trips ~~ 1998 Q3 4356. 3895.      296.       165.          4060.
 4 Business STL(Trips ~~ 1998 Q4 3796. 3936.      -42.9      -97.7         3838.
 5 Business STL(Trips ~~ 1999 Q1 3335. 3991.     -431.      -225.          3766.
 6 Business STL(Trips ~~ 1999 Q2 4714. 3986.      174.       555.          4540.
 7 Business STL(Trips ~~ 1999 Q3 4190. 3986.      285.       -81.4         3905.
 8 Business STL(Trips ~~ 1999 Q4 3701. 3970.        1.45    -271.          3700.
 9 Business STL(Trips ~~ 2000 Q1 3562. 3943.     -464.        83.8         4026.
10 Business STL(Trips ~~ 2000 Q2 4018. 3991.      162.      -135.          3856.
# i 310 more rows
…
Features

A big feature of feasts is the ability to extract a set of features (single value summary of data characteristics) from the time series.

Features are particularly useful for visualising large collections of time series. Plotting multiple time series using the above methods do not scale very well beyond 10 similar series, and the original tourism dataset contains 304 (and even more if you consider aggregates)!

The STL decomposition above can be used to compute features about the strength of the its trend and seasonality components, allowing us to see an overview of the entire dataset’s patterns.

tourism %>% 
  features(Trips, feature_set(tags = "stl"))

# A tibble: 304 x 12
   Region State Purpose trend_strength seasonal_strength_year seasonal_peak_year
   <chr>  <chr> <chr>            <dbl>                  <dbl>              <dbl>
 1 Adela~ Sout~ Busine~          0.464                  0.407                  3
 2 Adela~ Sout~ Holiday          0.554                  0.619                  1
 3 Adela~ Sout~ Other            0.746                  0.202                  2
 4 Adela~ Sout~ Visiti~          0.435                  0.452                  1
 5 Adela~ Sout~ Busine~          0.464                  0.179                  3
 6 Adela~ Sout~ Holiday          0.528                  0.296                  2
 7 Adela~ Sout~ Other            0.593                  0.404                  2
 8 Adela~ Sout~ Visiti~          0.488                  0.254                  0
 9 Alice~ Nort~ Busine~          0.534                  0.251                  0
10 Alice~ Nort~ Holiday          0.381                  0.832                  3
# i 294 more rows
# i 6 more variables: seasonal_trough_year <dbl>, spikiness <dbl>,
#   linearity <dbl>, curvature <dbl>, stl_e_acf1 <dbl>, stl_e_acf10 <dbl>
…
