Mitchell O’Hara-Wild - Why I don’t add style options to my ggplot2 functions
…
However the visualisation of forecasts is now built up with smaller and more modular components. In particular, the forecast object (a fable) is now rectangular and ready to use directly with ggplot2 and other tidy/rectangular functions.

wine_fbl

# A fable: 48 x 4 [1M]
# Key:     .model [1]
   .model        index             value  .mean
   <chr>         <mth>            <dist>  <dbl>
 1 ETS(value) 1994 Sep N(24739, 4756552) 24739.
 2 ETS(value) 1994 Oct N(26972, 5674061) 26972.
 3 ETS(value) 1994 Nov N(31771, 7901147) 31771.
 4 ETS(value) 1994 Dec N(37060, 1.1e+07) 37060.
 5 ETS(value) 1995 Jan N(16590, 2169674) 16590.
 6 ETS(value) 1995 Feb N(21206, 3557682) 21206.
 7 ETS(value) 1995 Mar N(23948, 4553053) 23948.
 8 ETS(value) 1995 Apr N(25620, 5229329) 25620.
 9 ETS(value) 1995 May N(24054, 4625845) 24054.
10 ETS(value) 1995 Jun N(24662, 4880015) 24662.
# i 38 more rows
…
