Mitchell O’Hara-Wild - Introducing fable
…
The first release of fable implements all of these goals and more. While this post won’t cover the details of how these goals are achieved, I hope that the forecasting example below illustrates how these goals have been realised for forecasting in practice. I have no doubt that there will be many more blog posts which will explore fable in greater detail.

Forecasting with fable

library(tidyverse)
library(tsibble)
library(fable)

To see how fable can be applied to real forecasting problems we’ll create some simple forecasts of Australia’s domestic tourism. This is the same dataset analysed in the Introducing feasts post, which provides a visual introduction to the data using the closely related feasts package.

Data manipulation and exploration

tourism

# A tsibble: 24,320 x 5 [1Q]
# Key:       Region, State, Purpose [304]
   Quarter Region   State           Purpose  Trips
     <qtr> <chr>    <chr>           <chr>    <dbl>
 1 1998 Q1 Adelaide South Australia Business  135.
 2 1998 Q2 Adelaide South Australia Business  110.
 3 1998 Q3 Adelaide South Australia Business  166.
 4 1998 Q4 Adelaide South Australia Business  127.
 5 1999 Q1 Adelaide South Australia Business  137.
 6 1999 Q2 Adelaide South Australia Business  200.
 7 1999 Q3 Adelaide South Australia Business  169.
 8 1999 Q4 Adelaide South Australia Business  134.
 9 2000 Q1 Adelaide South Australia Business  154.
10 2000 Q2 Adelaide South Australia Business  169.
# i 24,310 more rows

This dataset contains quarterly domestic overnight trips for a variety of locations and purposes around Australia. When disaggregated by the key variables (Region, State and Purpose), we have a total of 304 separate time series to forecast.

Let’s start simple and use dplyr to calculate the total overnight domestic trips for Australia.

tourism_aus <- tourism %>% 
  summarise(Trips = sum(Trips))
tourism_aus

# A tsibble: 80 x 2 [1Q]
   Quarter  Trips
     <qtr>  <dbl>
 1 1998 Q1 23182.
 2 1998 Q2 20323.
 3 1998 Q3 19827.
 4 1998 Q4 20830.
 5 1999 Q1 22087.
 6 1999 Q2 21458.
 7 1999 Q3 19914.
 8 1999 Q4 20028.
 9 2000 Q1 22339.
10 2000 Q2 19941.
# i 70 more rows
…
Scaling it up

Producing forecasts for a single time series isn’t particularly exciting, and certainly doesn’t align well with modern forecasting problems. Suppose we were interested in forecasting tourism for each of Australia’s major states (and territories).

tourism_state <- tourism %>% 
  group_by(State) %>% 
  summarise(Trips = sum(Trips))
tourism_state

# A tsibble: 640 x 3 [1Q]
# Key:       State [8]
   State Quarter Trips
   <chr>   <qtr> <dbl>
 1 ACT   1998 Q1  551.
 2 ACT   1998 Q2  416.
 3 ACT   1998 Q3  436.
 4 ACT   1998 Q4  450.
 5 ACT   1999 Q1  379.
 6 ACT   1999 Q2  558.
 7 ACT   1999 Q3  449.
 8 ACT   1999 Q4  595.
 9 ACT   2000 Q1  600.
10 ACT   2000 Q2  557.
# i 630 more rows
…
